Windowing Raw Sample Data
…
# Read in example data
fpath <- system.file("extdata/mono250.asc.gz", package = "eyelinker")
asc <- read_asc(fpath)

Extracting Trial Events From Messages

Trial event messages are stored in the msg table of the
imported data, which contains the text and timestamps of all messages
sent to the tracker by the experiment program during each trial. Let’s
take a look at the messages in our example data:

asc$msg

## # A tibble: 29 × 3
##    block    time text                                                          
##    <dbl>   <dbl> <chr>                                                         
##  1     1 5886023 -6 Initial_display                                            
##  2     1 5886023 -5 !V DRAW_LIST ../../runtime/dataviewer/js/graphics/VC_1.vcl 
##  3     1 5886504 0 Display_initial_time_out                                    
##  4     1 5886514 -14 Target_display                                            
##  5     1 5886514 -14 !V IAREA FILE ../../runtime/dataviewer/js/aoi/IA_1.ias    
##  6     1 5886816 0 Saccade_target                                              
##  7     1 5886822 -6 End_trial_display                                          
##  8     2 5888666 -12 Initial_display                                           
##  9     2 5888666 -12 !V DRAW_LIST ../../runtime/dataviewer/js/graphics/VC_2.vcl
## 10     2 5889154 0 Display_initial_time_out                                    
## # ℹ 19 more rows
…
rawdat <- rawdat %>%
  subset(!is.na(phase)) %>%
  group_by(block) %>%
  mutate(
    trialtime = time - time[1]
  )

Before we plot, let’s see what our data looks like now:

rawdat

## # A tibble: 818 × 8
## # Groups:   block [4]
##    block    time    xp    yp    ps cr.info phase trialtime
##    <dbl>   <dbl> <dbl> <dbl> <dbl> <chr>   <fct>     <dbl>
##  1     1 5886021  511.  385.  1026 ...     onset         0
##  2     1 5886025  510.  384.  1024 ...     onset         4
##  3     1 5886029  511.  384.  1027 ...     onset         8
##  4     1 5886033  511.  384.  1022 ...     onset        12
##  5     1 5886037  511   384.  1020 ...     onset        16
##  6     1 5886041  512.  385.  1019 ...     onset        20
##  7     1 5886045  512.  386.  1013 ...     onset        24
##  8     1 5886049  511.  386.  1017 ...     onset        28
##  9     1 5886053  511   386.  1017 ...     onset        32
## 10     1 5886057  511.  386.  1016 ...     onset        36
## # ℹ 808 more rows
…
